<svg width="32" height="29" viewBox="0 0 32 29" fill="none" xmlns="http://www.w3.org/2000/svg">
    <path d="M14.64 28.5067C6.98145 28.5067 0.773346 22.2986 0.773346 14.64C0.773346 6.98146 6.98145 0.77335 14.64 0.77335C16.793 0.771732 18.9168 1.27223 20.8425 2.23509C22.7682 3.19795 24.4428 4.59663 25.7333 6.32002H21.9755C20.3742 4.90806 18.3995 3.98814 16.2884 3.67065C14.1772 3.35316 12.0193 3.65159 10.0736 4.53012C8.12782 5.40866 6.47691 6.82998 5.31894 8.62353C4.16096 10.4171 3.54511 12.5067 3.54529 14.6416C3.54547 16.7764 4.16166 18.8659 5.31994 20.6593C6.47821 22.4526 8.12936 23.8737 10.0752 24.7519C12.0211 25.6301 14.1791 25.9282 16.2902 25.6103C18.4013 25.2925 20.3758 24.3722 21.9769 22.96H25.7347C24.4441 24.6836 22.7692 26.0824 20.8432 27.0452C18.9173 28.0081 16.7933 28.5085 14.64 28.5067ZM24.3467 20.1867V16.0267H13.2533V13.2533H24.3467V9.09335L31.28 14.64L24.3467 20.1867Z" fill="black"/>
</svg>
